input.c:97:5:input_queue_ascii	0	static
input.c:114:5:input_tstc	8	static
input.c:123:5:input_getc	8	static
input.c:341:5:input_send_keycodes	64	dynamic
input.c:376:5:input_add_table	8	static
input.c:395:5:input_init	32	static
input.c:415:5:input_stdio_register	8	static
