S02B00002F70726F6A6563742F7472756E6B2F7431363030672D323874735F67706C2F6C646B2F332E342E35C9
S3156100000004E02DE514D04DE210208DE22830E0E3C6
S315610000101010A0E3043062E50330A0E300308DE503
S315610000200230A0E13C0100EB000050E30D00DD056C
S315610000300000E01314D08DE20080BDE8F8462DE99A
S315610000400040A0E3B4609FE50450A0E1B0909FE555
S31561000050B0A09FE506608FE0AC709FE509908FE0E8
S315610000600AA08FE007708FE00450C6E7F60000EB48
S315610000707030EFE60A0053E31A00000A0B0000CA6B
S31561000080030053E31300000A080053E30B00000A60
S315610000901F0053E3F3FFFF9A0A00A0E10310A0E1FA
S315610000A00430C9E7014084E2EF0000EBEDFFFFEAAF
S315610000B05F0053E30100000A7F0053E30700001A63
S315610000C0000054E3E7FFFF0A0700A0E1014044E2B4
S315610000D0E30000EBE3FFFFEA0000A0E3F886BDE87A
S315610000E00D0053E3E9FFFF1A20009FE500008FE052
S315610000F0DB0000EB18009FE500008FE0F886BDE8A5
S31561000100AC870000A48700000C0500000405000010
S31561000110E405000008870000F04E2DE90100A0E12A
S3156100012018D04DE2FF0000EBC50000EB060050E37E
S315610001300E00000AC0029FE50610A0E300008FE0F2
S31561000140C90000EBBE0000EB0010A0E1AC029FE528
S3156100015000008FE0C40000EBA4029FE500008FE081
S31561000160C10000EB0100A0E318D08DE2F08EBDE87E
S3156100017090329FE590429FE590529FE590629FE5A0
S3156100018003308FE08CA29FE504408FE005508FE03D
S315610001900C308DE506608FE00AA08FE0D40000EB9D
S315610001A00400A0E1AE0000EBA3FFFFEB003050E2DC
S315610001B01100000A0030D3E5000053E3F7FFFF0AA0
S315610001C00A20A0E310108DE2BD0000EB10209DE532
S315610001D00090A0E100B0A0E10030D2E5000053E359
S315610001E00700000A3A0053E33900000A28029FE536
S315610001F000008FE09A0000EBE8FFFFEA0300A0E150
S31561000200D8FFFFEA0390A0E10310A0E10B20A0E173
S315610002100500A0E1940000EB0900A0E10B10A0E14C
S31561000220FA2FA0E30330A0E3B30000EB009050E2A5
S315610002302300000AB40000EB000050E31900001A25
S3156100024018708DE26030E0E303B0A0E3043067E547
S315610002500900A0E100B08DE52010A0E30720A0E130
S315610002600730A0E1AC0000EB000050E30900001A82
S315610002701510DDE51F0051E30D00001A1610DDE5CE
S31561000280A132A0E1010053E31E00000A8C019FE543
S3156100029000008FE0740000EB0600A0E1700000EB47
S315610002A00900A0E19A0000EB0900A0E1940000EBCF
S315610002B0BAFFFFEA68019FE500008FE06A0000EB84
S315610002C0F4FFFFEA5C019FE500008FE0640000EB4C
S315610002D0B2FFFFEA013082E210108DE20300A0E175
S315610002E00A20A0E310308DE5750000EB10309DE526
S315610002F00030D3E5000053E3BBFFFF1A0910A0E10C
S3156100030000B0A0E1C0FFFFEA0900A0E13BFFFFEBFF
S31561000310010070E32800000A010010E30300000AEF
S3156100032004019FE500008FE04D0000EBDBFFFFEA73
S315610003300A00A0E14A0000EB0C009DE5480000EBD5
S31561000340E8009FE500008FE0470000EB3AFFFFEB16
S31561000350000050E3D1FFFF0AD4109FE501108FE042
S315610003605D0000EB000050E3CCFFFF1A2AC0A0E35A
S315610003700720A0E115C0CDE57FC0E0E316C0CDE55D
S3156100038059C0E0E317C0CDE50900A0E13DC0A0E397
S3156100039000B08DE52010A0E30730A0E114C0CDE5E3
S315610003A05D0000EB000050E30700000A84009FE552
S315610003B000008FE02A0000EBB8FFFFEA78009FE5B6
S315610003C000008FE0260000EBB4FFFFEA700701E34F
S315610003D02F0000EB0900A0E108FFFFEB010070E3CD
S315610003E0F1FFFF0A010010E3EFFFFF0A4C009FE5F2
S315610003F000008FE01A0000EBA8FFFFEA340400005A
S31561000400380400004C040000840500002C04000040
S3156100041074040000480600003C050000EC0300007F
S31561000420D803000088030000600300008803000011
S31561000430F0030000F0030000A0030000CC020000FE
S315610004407C03000054C098E500F09CE554C098E533
S3156100045004F09CE554C098E508F09CE554C098E525
S315610004600CF09CE554C098E510F09CE554C098E505
S3156100047014F09CE554C098E518F09CE554C098E5E5
S315610004801CF09CE554C098E520F09CE554C098E5C5
S3156100049024F09CE554C098E528F09CE554C098E5A5
S315610004A02CF09CE554C098E530F09CE554C098E585
S315610004B034F09CE554C098E538F09CE554C098E565
S315610004C03CF09CE554C098E540F09CE554C098E545
S315610004D044F09CE554C098E548F09CE554C098E525
S315610004E04CF09CE554C098E550F09CE554C098E505
S315610004F054F09CE554C098E558F09CE554C098E5E5
S315610005005CF09CE554C098E560F09CE554C098E5C4
S3156100051064F09CE554C098E568F09CE554C098E5A4
S315610005206CF09CE51EFF2FE134209FE534309FE59A
S3156100053034109FE502208FE0033092E7011092E7C5
S31561000540010053E11EFF2F21013043E2011041E218
S315610005500020A0E30120E3E5010053E1FCFFFF1A5F
S315610005601EFF2FE1B88200000C00000010000000A1
S315610005700820080025630000457870656374732060
S315610005804142492076657273696F6E2025640A005F
S3156100059041637475616C20552D426F6F74204142C1
S315610005A0492076657273696F6E20256C750A000045
S315610005B043616E27742072756E0A0A000A656E744D
S315610005C0657220746865205B4255533A5D435320DA
S315610005D06F66207468652053504920666C61736844
S315610005E03A200000696E76616C696420666F726D8F
S315610005F061742C20706C65617365207472792061F9
S315610006006761696E0A0000000A676F696E67207428
S315610006106F20776F726B207769746820646174618B
S31561000620666C6173682061742025693A25690A00E0
S31561000630756E61626C6520746F2073657475702068
S31561000640736C6176650A000061746D656C20666C19
S31561000650617368206E6F7420666F756E6420286999
S31561000660645B305D203D20252378290A0000000067
S315610006704154343520666C617368206E6F742066F0
S315610006806F756E64202869645B305D203D2025238B
S3156100069078290A00756E61626C6520746F207265D7
S315610006A061642073746174757320726567697374AC
S315610006B065720A00666C61736820697320616C7289
S315610006C06561647920696E20706F7765722D6F66DA
S315610006D02D32206D6F6465210A000000617265200C
S315610006E0796F75207375726520796F752077697377
S315610006F06820746F2073657420706F7765722D6FD3
S31561000700662D32206D6F64653F0A000074686973F7
S31561000710206F7065726174696F6E20697320706590
S31561000720726D616E656E7420616E64206972726548
S315610007307665727369626C650A000000656E746540
S31561000740722059455320746F20636F6E74696E759C
S31561000750653A20005945530073657474696E672064
S31561000760706F7732206D6F6465206661696C656450
S315610007700A000000436F6E66696775726174696F1E
S315610007806E2073686F756C64206265207570646134
S31561000790746564206E6F772E2020596F7520776996
S315610007A06C6C206861766520746F0A706F7765720C
S315610007B0206379636C65207468652070617274204A
S315610007C0696E206F7264657220746F2066696E69E6
S315610007D073682074686520636F6E76657273696F7E
S315610007E06E2E0A006E6F20666C61736820666F7587
S309610007F06E640A00C2
S315610087F4000000000000000000000000088800611D
S309610088046C880061B4
S7056100011880
