S02B00002F70726F6A6563742F7472756E6B2F7431363030672D323874735F67706C2F6C646B2F332E342E35C9
S31561000000F0462DE90138A0E30CD04DE20050A0E1A5
S315610000100100A0E10160A0E104308DE5240100EB5F
S3156100002050029FE50610A0E300008FE0F10000EBAF
S31561000030E60000EB0010A0E13C029FE500008FE0C6
S31561000040EC0000EB34029FE500008FE0E90000EB75
S315610000502C029FE50510A0E100008FE0E50000EBB2
S31561000060930000EB000055E30E0000BA14A29FE571
S31561000070046046E210729FE50040A0E30AA08FE0AB
S3156100008007708FE00420B6E50410A0E10700A0E147
S31561000090014084E2000052E30A20A001D50000EB92
S315610000A0040055E1F6FFFFAAE0919FE5FC5102E3EA
S315610000B0FC6103E3FC7104E301ACA0E30040A0E34F
S315610000C009908FE0015841E3016841E3017841E31A
S315610000D002A841E3013BA0E3013841E3030054E197
S315610000E01E00000A050054E12A00000A060054E1D8
S315610000F03000000A070054E13600000A0A0054E1A4
S315610001003C00000A033AA0E3023841E3030054E1EC
S315610001104000000A0A3AA0E3023841E3030054E1D1
S315610001204400000A0339A0E3023841E3030054E1C5
S315610001304800000A04309DE5013043E2000053E3C4
S3156100014004308DE50C00000A043094E400308DE53E
S31561000150013BA0E3013841E3030054E1E0FFFF1AEC
S31561000160011AA0E30900A0E1011841E3014AA0E3F5
S31561000170A00000EB014841E3D5FFFFEA10019FE5CE
S315610001800410A0E100008FE09A0000EB0138A0E3C3
S3156100019004308DE5EBFFFFEAF8009FE5221CA0E342
S315610001A0011841E3224CA0E3014841E300008FE0DE
S315610001B0900000EBC6FFFFEADC009FE5321CA0E37E
S315610001C0011841E3324CA0E3014841E300008FE0AE
S315610001D0880000EBBEFFFFEAC0009FE5421CA0E37A
S315610001E0011841E3424CA0E3014841E300008FE07E
S315610001F0800000EBB6FFFFEAA4009FE5011AA0E3C9
S31561000200021841E3014AA0E3024841E300008FE09E
S31561000210780000EBAEFFFFEA88009FE50119A0E3D5
S31561000220021841E30149A0E3024841E300008FE07F
S31561000230700000EBA6FFFFEA6C009FE50B1AA0E3D6
S31561000240021841E30B4AA0E3024841E300008FE054
S31561000250680000EB9EFFFFEA50009FE50D1AA0E3E0
S31561000260021841E30D4AA0E3024841E300008FE032
S31561000270600000EB96FFFFEAD4040000E004000092
S31561000280F4040000F404000078040000D8040000BF
S31561000290AC040000F8030000C0030000A0030000E6
S315610002A0800300006003000040030000200300009B
S315610002B0000300000DCAA0E3F00E2DE910C841E36A
S315610002C024D04DE206BAA0E3079AA0E304C08DE507
S315610002D00ACAA0E311C841E302A9A0E308C08DE5FB
S315610002E00BCAA0E311C841E3097AA0E30CC08DE50E
S315610002F003C9A0E311C841E30A6AA0E310C08DE512
S3156100030001CAA0E312C841E30B5AA0E314C08DE50C
S3156100031002CAA0E313C841E30349A0E318C08DE50F
S3156100032006CAA0E313C841E3333EA0E31CC08DE5D2
S3156100033010B841E304C09DE5109841E310A841E37C
S31561000340107841E3106841E3105841E3104841E3F6
S3156100035000398BE5003989E5030AA0E300398AE5AE
S315610003600119A0E3003987E5052AA0E3003986E58E
S31561000370132841E3003985E5130841E3003984E533
S31561000380131841E300398CE508C09DE500398CE519
S315610003900CC09DE500398CE510C09DE500398CE502
S315610003A014C09DE500398CE518C09DE500398CE5E2
S315610003B0003980E5003981E5003982E51C209DE53B
S315610003C0003982E524D08DE2F00EBDE81EFF2FE1F3
S315610003D054C098E500F09CE554C098E504F09CE5AE
S315610003E054C098E508F09CE554C098E50CF09CE58E
S315610003F054C098E510F09CE554C098E514F09CE56E
S3156100040054C098E518F09CE554C098E51CF09CE54D
S3156100041054C098E520F09CE554C098E524F09CE52D
S3156100042054C098E528F09CE554C098E52CF09CE50D
S3156100043054C098E530F09CE554C098E534F09CE5ED
S3156100044054C098E538F09CE554C098E53CF09CE5CD
S3156100045054C098E540F09CE554C098E544F09CE5AD
S3156100046054C098E548F09CE554C098E54CF09CE58D
S3156100047054C098E550F09CE554C098E554F09CE56D
S3156100048054C098E558F09CE554C098E55CF09CE54D
S3156100049054C098E560F09CE554C098E564F09CE52D
S315610004A054C098E568F09CE554C098E56CF09CE50D
S315610004B01EFF2FE134209FE534309FE534109FE520
S315610004C002208FE0033092E7011092E7010053E1C9
S315610004D01EFF2F21013043E2011041E20020A0E31B
S315610004E00120E3E5010053E1FCFFFF1A1EFF2FE146
S311610004F0C88000000C0000001000000035
S315610004FC3C4E554C4C3E00004578616D706C6520E8
S3156100050C65787065637473204142492076657273B0
S3156100051C696F6E2025640A0041637475616C2055A0
S3156100052C2D426F6F74204142492076657273696FF3
S3156100053C6E2025640A00000048656C6C6F20576F4D
S3156100054C726C640A0000000061726763203D2025AD
S3156100055C640A0000617267765B25645D203D20222A
S3156100056C2573220A00000000307825303878203A4D
S3156100057C2020736B69700A003078253038783A0A16
S3096100058C0000000004
S31561008590000000000000000000000000A4850061EA
S309610085A0A4850061E6
S7056100000099
